{
  "formatVersion": 1,
  "database": {
    "version": 1,
    "identityHash": "5582749094e7f8e1c18891d1313a6b94",
    "entities": [
      {
        "tableName": "account",
        "createSql": "CREATE TABLE IF NOT EXISTS `${TABLE_NAME}` (`pk` INTEGER NOT NULL, `email` TEXT NOT NULL, `username` TEXT NOT NULL, PRIMARY KEY(`pk`))",
        "fields": [
          {
            "fieldPath": "pk",
            "columnName": "pk",
            "affinity": "INTEGER",
            "notNull": true
          },
          {
            "fieldPath": "email",
            "columnName": "email",
            "affinity": "TEXT",
            "notNull": true
          },
          {
            "fieldPath": "username",
            "columnName": "username",
            "affinity": "TEXT",
            "notNull": true
          }
        ],
        "primaryKey": {
          "columnNames": [
            "pk"
          ],
          "autoGenerate": false
        },
        "indices": [],
        "foreignKeys": []
      },
      {
        "tableName": "auth_token",
        "createSql": "CREATE TABLE IF NOT EXISTS `${TABLE_NAME}` (`account_pk` INTEGER, `token` TEXT, PRIMARY KEY(`account_pk`), FOREIGN KEY(`account_pk`) REFERENCES `account`(`pk`) ON UPDATE NO ACTION ON DELETE CASCADE )",
        "fields": [
          {
            "fieldPath": "account_pk",
            "columnName": "account_pk",
            "affinity": "INTEGER",
            "notNull": false
          },
          {
            "fieldPath": "token",
            "columnName": "token",
            "affinity": "TEXT",
            "notNull": false
          }
        ],
        "primaryKey": {
          "columnNames": [
            "account_pk"
          ],
          "autoGenerate": false
        },
        "indices": [],
        "foreignKeys": [
          {
            "table": "account",
            "onDelete": "CASCADE",
            "onUpdate": "NO ACTION",
            "columns": [
              "account_pk"
            ],
            "referencedColumns": [
              "pk"
            ]
          }
        ]
      },
      {
        "tableName": "blog_post",
        "createSql": "CREATE TABLE IF NOT EXISTS `${TABLE_NAME}` (`pk` INTEGER NOT NULL, `title` TEXT NOT NULL, `slug` TEXT NOT NULL, `body` TEXT NOT NULL, `image` TEXT NOT NULL, `date_updated` INTEGER NOT NULL, `username` TEXT NOT NULL, PRIMARY KEY(`pk`))",
        "fields": [
          {
            "fieldPath": "pk",
            "columnName": "pk",
            "affinity": "INTEGER",
            "notNull": true
          },
          {
            "fieldPath": "title",
            "columnName": "title",
            "affinity": "TEXT",
            "notNull": true
          },
          {
            "fieldPath": "slug",
            "columnName": "slug",
            "affinity": "TEXT",
            "notNull": true
          },
          {
            "fieldPath": "body",
            "columnName": "body",
            "affinity": "TEXT",
            "notNull": true
          },
          {
            "fieldPath": "image",
            "columnName": "image",
            "affinity": "TEXT",
            "notNull": true
          },
          {
            "fieldPath": "date_updated",
            "columnName": "date_updated",
            "affinity": "INTEGER",
            "notNull": true
          },
          {
            "fieldPath": "username",
            "columnName": "username",
            "affinity": "TEXT",
            "notNull": true
          }
        ],
        "primaryKey": {
          "columnNames": [
            "pk"
          ],
          "autoGenerate": false
        },
        "indices": [],
        "foreignKeys": []
      }
    ],
    "views": [],
    "setupQueries": [
      "CREATE TABLE IF NOT EXISTS room_master_table (id INTEGER PRIMARY KEY,identity_hash TEXT)",
      "INSERT OR REPLACE INTO room_master_table (id,identity_hash) VALUES(42, '5582749094e7f8e1c18891d1313a6b94')"
    ]
  }
}